transcript
vlog Comparator2.v testfixture.sv
# Model Technology ModelSim - Intel FPGA Edition vlog 2020.1 Compiler 2020.02 Feb 28 2020
# Start time: 10:15:35 on Apr 21,2025
# vlog -reportprogress 300 Comparator2.v testfixture.sv 
# -- Compiling module Comparator2
# -- Compiling module testfixture
# 
# Top level modules:
# 	testfixture
# End time: 10:15:36 on Apr 21,2025, Elapsed time: 0:00:01
# Errors: 0, Warnings: 0
vlog Comparator2.v testfixture.sv MedianFinder_6num.v
# Model Technology ModelSim - Intel FPGA Edition vlog 2020.1 Compiler 2020.02 Feb 28 2020
# Start time: 10:15:44 on Apr 21,2025
# vlog -reportprogress 300 Comparator2.v testfixture.sv MedianFinder_6num.v 
# -- Compiling module Comparator2
# -- Compiling module testfixture
# -- Compiling module MedianFinder_6num
# 
# Top level modules:
# 	testfixture
# End time: 10:15:44 on Apr 21,2025, Elapsed time: 0:00:00
# Errors: 0, Warnings: 0
vsim -gui work.testfixture
# vsim -gui work.testfixture 
# Start time: 10:16:08 on Apr 21,2025
# Loading sv_std.std
# Loading work.testfixture
# Loading work.Comparator2
# Loading work.MedianFinder_6num
restart
# ** Note: (vsim-12125) Error and warning message counts have been reset to '0' because of 'restart'.
run -all
# Stage2: 0 Failed! Median: z (Expected: 11)
# Stage2: 1 Failed! Median: z (Expected: 9)
# Stage2: 2 Failed! Median: z (Expected: 6)
# Stage2: 3 Failed! Median: z (Expected: 9)
# Stage2: 4 Failed! Median: z (Expected: 11)
# Stage2: 5 Failed! Median: z (Expected: 5)
# Stage2: 6 Failed! Median: z (Expected: 10)
# Stage2: 7 Failed! Median: z (Expected: 12)
# Stage2: 8 Failed! Median: z (Expected: 3)
# Stage2: 9 Failed! Median: z (Expected: 7)
# Stage2: 10 Failed! Median: z (Expected: 7)
# Stage2: 11 Failed! Median: z (Expected: 7)
# Stage2: 12 Failed! Median: z (Expected: 4)
# Stage2: 13 Failed! Median: z (Expected: 9)
# Stage2: 14 Failed! Median: z (Expected: 11)
# Stage2: 15 Failed! Median: z (Expected: 6)
# Stage2: 16 Failed! Median: z (Expected: 10)
# Stage2: 17 Failed! Median: z (Expected: 5)
# Stage2: 18 Failed! Median: z (Expected: 2)
# Stage2: 19 Failed! Median: z (Expected: 5)
# Stage2: 20 Failed! Median: z (Expected: 9)
# Stage2: 21 Failed! Median: z (Expected: 12)
# Stage2: 22 Failed! Median: z (Expected: 7)
# Stage2: 23 Failed! Median: z (Expected: 2)
# Stage2: 24 Failed! Median: z (Expected: 1)
# Stage2: 25 Failed! Median: z (Expected: 7)
# Stage2: 26 Failed! Median: z (Expected: 3)
# Stage2: 27 Failed! Median: z (Expected: 9)
# Stage2: 28 Failed! Median: z (Expected: 7)
# Stage2: 29 Failed! Median: z (Expected: 12)
# Stage2: 30 Failed! Median: z (Expected: 9)
# Stage2: 31 Failed! Median: z (Expected: 4)
# Stage2: 32 Failed! Median: z (Expected: 9)
# Stage2: 33 Failed! Median: z (Expected: 6)
# Stage2: 34 Failed! Median: z (Expected: 3)
# Stage2: 35 Failed! Median: z (Expected: 7)
# Stage2: 36 Failed! Median: z (Expected: 6)
# Stage2: 37 Failed! Median: z (Expected: 1)
# Stage2: 38 Failed! Median: z (Expected: 7)
# Stage2: 39 Failed! Median: z (Expected: 9)
# Stage2: 40 Failed! Median: z (Expected: 9)
# Stage2: 41 Failed! Median: z (Expected: 11)
# Stage2: 42 Failed! Median: z (Expected: 9)
# Stage2: 43 Failed! Median: z (Expected: 11)
# Stage2: 44 Failed! Median: z (Expected: 9)
# Stage2: 45 Failed! Median: z (Expected: 10)
# Stage2: 46 Failed! Median: z (Expected: 7)
# Stage2: 47 Failed! Median: z (Expected: 4)
# Stage2: 48 Failed! Median: z (Expected: 9)
# Stage2: 49 Failed! Median: z (Expected: 6)
# Stage2: 50 Failed! Median: z (Expected: 11)
# Stage2: 51 Failed! Median: z (Expected: 5)
# Stage2: 52 Failed! Median: z (Expected: 8)
# Stage2: 53 Failed! Median: z (Expected: 5)
# Stage2: 54 Failed! Median: z (Expected: 5)
# Stage2: 55 Failed! Median: z (Expected: 6)
# Stage2: 56 Failed! Median: z (Expected: 13)
# Stage2: 57 Failed! Median: z (Expected: 10)
# Stage2: 58 Failed! Median: z (Expected: 8)
# Stage2: 59 Failed! Median: z (Expected: 9)
# Stage2: 60 Failed! Median: z (Expected: 10)
# Stage2: 61 Failed! Median: z (Expected: 7)
# Stage2: 62 Failed! Median: z (Expected: 2)
# Stage2: 63 Failed! Median: z (Expected: 4)
# Stage2: 64 Failed! Median: z (Expected: 7)
# Stage2: 65 Failed! Median: z (Expected: 3)
# Stage2: 66 Failed! Median: z (Expected: 12)
# Stage2: 67 Failed! Median: z (Expected: 6)
# Stage2: 68 Failed! Median: z (Expected: 3)
# Stage2: 69 Failed! Median: z (Expected: 9)
# Stage2: 70 Failed! Median: z (Expected: 6)
# Stage2: 71 Failed! Median: z (Expected: 10)
# Stage2: 72 Failed! Median: z (Expected: 4)
# Stage2: 73 Failed! Median: z (Expected: 5)
# Stage2: 74 Failed! Median: z (Expected: 6)
# Stage2: 75 Failed! Median: z (Expected: 6)
# Stage2: 76 Failed! Median: z (Expected: 6)
# Stage2: 77 Failed! Median: z (Expected: 7)
# Stage2: 78 Failed! Median: z (Expected: 9)
# Stage2: 79 Failed! Median: z (Expected: 8)
# Stage2: 80 Failed! Median: z (Expected: 6)
# Stage2: 81 Failed! Median: z (Expected: 5)
# Stage2: 82 Failed! Median: z (Expected: 12)
# Stage2: 83 Failed! Median: z (Expected: 4)
# Stage2: 84 Failed! Median: z (Expected: 9)
# Stage2: 85 Failed! Median: z (Expected: 10)
# Stage2: 86 Failed! Median: z (Expected: 12)
# Stage2: 87 Failed! Median: z (Expected: 5)
# Stage2: 88 Failed! Median: z (Expected: 5)
# Stage2: 89 Failed! Median: z (Expected: 1)
# Stage2: 90 Failed! Median: z (Expected: 5)
# Stage2: 91 Failed! Median: z (Expected: 9)
# Stage2: 92 Failed! Median: z (Expected: 9)
# Stage2: 93 Failed! Median: z (Expected: 8)
# Stage2: 94 Failed! Median: z (Expected: 10)
# Stage2: 95 Failed! Median: z (Expected: 8)
# Stage2: 96 Failed! Median: z (Expected: 7)
# Stage2: 97 Failed! Median: z (Expected: 11)
# Stage2: 98 Failed! Median: z (Expected: 6)
# Stage2: 99 Failed! Median: z (Expected: 7)
# Stage2: 100 Failed! Median: z (Expected: 10)
# Stage2: 101 Failed! Median: z (Expected: 11)
# Stage2: 102 Failed! Median: z (Expected: 11)
# Stage2: 103 Failed! Median: z (Expected: 6)
# Stage2: 104 Failed! Median: z (Expected: 9)
# Stage2: 105 Failed! Median: z (Expected: 5)
# Stage2: 106 Failed! Median: z (Expected: 4)
# Stage2: 107 Failed! Median: z (Expected: 4)
# Stage2: 108 Failed! Median: z (Expected: 7)
# Stage2: 109 Failed! Median: z (Expected: 11)
# Stage2: 110 Failed! Median: z (Expected: 9)
# Stage2: 111 Failed! Median: z (Expected: 8)
# Stage2: 112 Failed! Median: z (Expected: 3)
# Stage2: 113 Failed! Median: z (Expected: 3)
# Stage2: 114 Failed! Median: z (Expected: 10)
# Stage2: 115 Failed! Median: z (Expected: 12)
# Stage2: 116 Failed! Median: z (Expected: 7)
# Stage2: 117 Failed! Median: z (Expected: 11)
# Stage2: 118 Failed! Median: z (Expected: 5)
# Stage2: 119 Failed! Median: z (Expected: 2)
# Stage2: 120 Failed! Median: z (Expected: 5)
# Stage2: 121 Failed! Median: z (Expected: 6)
# Stage2: 122 Failed! Median: z (Expected: 7)
# Stage2: 123 Failed! Median: z (Expected: 5)
# Stage2: 124 Failed! Median: z (Expected: 11)
# Stage2: 125 Failed! Median: z (Expected: 10)
# Stage2: 126 Failed! Median: z (Expected: 9)
# Stage2: 127 Failed! Median: z (Expected: 8)
# Stage2: 128 Failed! Median: z (Expected: 4)
# Stage2: 129 Failed! Median: z (Expected: 11)
# Stage2: 130 Failed! Median: z (Expected: 5)
# Stage2: 131 Failed! Median: z (Expected: 6)
# Stage2: 132 Failed! Median: z (Expected: 4)
# Stage2: 133 Failed! Median: z (Expected: 7)
# Stage2: 134 Failed! Median: z (Expected: 7)
# Stage2: 135 Failed! Median: z (Expected: 5)
# Stage2: 136 Failed! Median: z (Expected: 7)
# Stage2: 137 Failed! Median: z (Expected: 3)
# Stage2: 138 Failed! Median: z (Expected: 6)
# Stage2: 139 Failed! Median: z (Expected: 9)
# Stage2: 140 Failed! Median: z (Expected: 12)
# Stage2: 141 Failed! Median: z (Expected: 4)
# Stage2: 142 Failed! Median: z (Expected: 13)
# Stage2: 143 Failed! Median: z (Expected: 6)
# Stage2: 144 Failed! Median: z (Expected: 6)
# Stage2: 145 Failed! Median: z (Expected: 7)
# Stage2: 146 Failed! Median: z (Expected: 7)
# Stage2: 147 Failed! Median: z (Expected: 12)
# Stage2: 148 Failed! Median: z (Expected: 9)
# Stage2: 149 Failed! Median: z (Expected: 9)
# Stage2: 150 Failed! Median: z (Expected: 10)
# Stage2: 151 Failed! Median: z (Expected: 13)
# Stage2: 152 Failed! Median: z (Expected: 8)
# Stage2: 153 Failed! Median: z (Expected: 5)
# Stage2: 154 Failed! Median: z (Expected: 7)
# Stage2: 155 Failed! Median: z (Expected: 5)
# Stage2: 156 Failed! Median: z (Expected: 11)
# Stage2: 157 Failed! Median: z (Expected: 2)
# Stage2: 158 Failed! Median: z (Expected: 4)
# Stage2: 159 Failed! Median: z (Expected: 10)
# Stage2: 160 Failed! Median: z (Expected: 9)
# Stage2: 161 Failed! Median: z (Expected: 9)
# Stage2: 162 Failed! Median: z (Expected: 12)
# Stage2: 163 Failed! Median: z (Expected: 10)
# Stage2: 164 Failed! Median: z (Expected: 8)
# Stage2: 165 Failed! Median: z (Expected: 7)
# Stage2: 166 Failed! Median: z (Expected: 7)
# Stage2: 167 Failed! Median: z (Expected: 5)
# Stage2: 168 Failed! Median: z (Expected: 8)
# Stage2: 169 Failed! Median: z (Expected: 7)
# Stage2: 170 Failed! Median: z (Expected: 7)
# Stage2: 171 Failed! Median: z (Expected: 10)
# Stage2: 172 Failed! Median: z (Expected: 8)
# Stage2: 173 Failed! Median: z (Expected: 6)
# Stage2: 174 Failed! Median: z (Expected: 11)
# Stage2: 175 Failed! Median: z (Expected: 6)
# Stage2: 176 Failed! Median: z (Expected: 9)
# Stage2: 177 Failed! Median: z (Expected: 4)
# Stage2: 178 Failed! Median: z (Expected: 6)
# Stage2: 179 Failed! Median: z (Expected: 10)
# Stage2: 180 Failed! Median: z (Expected: 6)
# Stage2: 181 Failed! Median: z (Expected: 3)
# Stage2: 182 Failed! Median: z (Expected: 8)
# Stage2: 183 Failed! Median: z (Expected: 7)
# Stage2: 184 Failed! Median: z (Expected: 6)
# Stage2: 185 Failed! Median: z (Expected: 5)
# Stage2: 186 Failed! Median: z (Expected: 12)
# Stage2: 187 Failed! Median: z (Expected: 9)
# Stage2: 188 Failed! Median: z (Expected: 5)
# Stage2: 189 Failed! Median: z (Expected: 6)
# Stage2: 190 Failed! Median: z (Expected: 6)
# Stage2: 191 Failed! Median: z (Expected: 5)
# Stage2: 192 Failed! Median: z (Expected: 8)
# Stage2: 193 Failed! Median: z (Expected: 8)
# Stage2: 194 Failed! Median: z (Expected: 6)
# Stage2: 195 Failed! Median: z (Expected: 9)
# Stage2: 196 Failed! Median: z (Expected: 6)
# Stage2: 197 Failed! Median: z (Expected: 10)
# Stage2: 198 Failed! Median: z (Expected: 5)
# Stage2: 199 Failed! Median: z (Expected: 10)
# Stage2: 200 Failed! Median: z (Expected: 10)
# Stage2: 201 Failed! Median: z (Expected: 10)
# Stage2: 202 Failed! Median: z (Expected: 7)
# Stage2: 203 Failed! Median: z (Expected: 4)
# Stage2: 204 Failed! Median: z (Expected: 9)
# Stage2: 205 Failed! Median: z (Expected: 6)
# Stage2: 206 Failed! Median: z (Expected: 8)
# Stage2: 207 Failed! Median: z (Expected: 13)
# Stage2: 208 Failed! Median: z (Expected: 11)
# Stage2: 209 Failed! Median: z (Expected: 4)
# Stage2: 210 Failed! Median: z (Expected: 8)
# Stage2: 211 Failed! Median: z (Expected: 9)
# Stage2: 212 Failed! Median: z (Expected: 10)
# Stage2: 213 Failed! Median: z (Expected: 7)
# Stage2: 214 Failed! Median: z (Expected: 15)
# Stage2: 215 Failed! Median: z (Expected: 6)
# Stage2: 216 Failed! Median: z (Expected: 7)
# Stage2: 217 Failed! Median: z (Expected: 8)
# Stage2: 218 Failed! Median: z (Expected: 7)
# Stage2: 219 Failed! Median: z (Expected: 8)
# Stage2: 220 Failed! Median: z (Expected: 5)
# Stage2: 221 Failed! Median: z (Expected: 6)
# Stage2: 222 Failed! Median: z (Expected: 7)
# Stage2: 223 Failed! Median: z (Expected: 7)
# Stage2: 224 Failed! Median: z (Expected: 10)
# Stage2: 225 Failed! Median: z (Expected: 6)
# Stage2: 226 Failed! Median: z (Expected: 5)
# Stage2: 227 Failed! Median: z (Expected: 7)
# Stage2: 228 Failed! Median: z (Expected: 5)
# Stage2: 229 Failed! Median: z (Expected: 7)
# Stage2: 230 Failed! Median: z (Expected: 6)
# Stage2: 231 Failed! Median: z (Expected: 6)
# Stage2: 232 Failed! Median: z (Expected: 5)
# Stage2: 233 Failed! Median: z (Expected: 10)
# Stage2: 234 Failed! Median: z (Expected: 10)
# Stage2: 235 Failed! Median: z (Expected: 9)
# Stage2: 236 Failed! Median: z (Expected: 5)
# Stage2: 237 Failed! Median: z (Expected: 6)
# Stage2: 238 Failed! Median: z (Expected: 7)
# Stage2: 239 Failed! Median: z (Expected: 9)
# Stage2: 240 Failed! Median: z (Expected: 7)
# Stage2: 241 Failed! Median: z (Expected: 11)
# Stage2: 242 Failed! Median: z (Expected: 7)
# Stage2: 243 Failed! Median: z (Expected: 7)
# Stage2: 244 Failed! Median: z (Expected: 5)
# Stage2: 245 Failed! Median: z (Expected: 9)
# Stage2: 246 Failed! Median: z (Expected: 7)
# Stage2: 247 Failed! Median: z (Expected: 4)
# Stage2: 248 Failed! Median: z (Expected: 6)
# Stage2: 249 Failed! Median: z (Expected: 9)
# Stage2: 250 Failed! Median: z (Expected: 7)
# Stage2: 251 Failed! Median: z (Expected: 6)
# Stage2: 252 Failed! Median: z (Expected: 3)
# Stage2: 253 Failed! Median: z (Expected: 7)
# Stage2: 254 Failed! Median: z (Expected: 4)
# Stage2: 255 Failed! Median: z (Expected: 8)
# Stage2: 256 Failed! Median: z (Expected: 6)
# Stage2: 257 Failed! Median: z (Expected: 8)
# Stage2: 258 Failed! Median: z (Expected: 6)
# Stage2: 259 Failed! Median: z (Expected: 9)
# Stage2: 260 Failed! Median: z (Expected: 9)
# Stage2: 261 Failed! Median: z (Expected: 11)
# Stage2: 262 Failed! Median: z (Expected: 9)
# Stage2: 263 Failed! Median: z (Expected: 7)
# Stage2: 264 Failed! Median: z (Expected: 7)
# Stage2: 265 Failed! Median: z (Expected: 10)
# Stage2: 266 Failed! Median: z (Expected: 6)
# Stage2: 267 Failed! Median: z (Expected: 6)
# Stage2: 268 Failed! Median: z (Expected: 11)
# Stage2: 269 Failed! Median: z (Expected: 4)
# Stage2: 270 Failed! Median: z (Expected: 5)
# Stage2: 271 Failed! Median: z (Expected: 12)
# Stage2: 272 Failed! Median: z (Expected: 9)
# Stage2: 273 Failed! Median: z (Expected: 6)
# Stage2: 274 Failed! Median: z (Expected: 4)
# Stage2: 275 Failed! Median: z (Expected: 5)
# Stage2: 276 Failed! Median: z (Expected: 8)
# Stage2: 277 Failed! Median: z (Expected: 4)
# Stage2: 278 Failed! Median: z (Expected: 3)
# Stage2: 279 Failed! Median: z (Expected: 6)
# Stage2: 280 Failed! Median: z (Expected: 11)
# Stage2: 281 Failed! Median: z (Expected: 6)
# Stage2: 282 Failed! Median: z (Expected: 6)
# Stage2: 283 Failed! Median: z (Expected: 11)
# Stage2: 284 Failed! Median: z (Expected: 7)
# Stage2: 285 Failed! Median: z (Expected: 9)
# Stage2: 286 Failed! Median: z (Expected: 10)
# Stage2: 287 Failed! Median: z (Expected: 6)
# Stage2: 288 Failed! Median: z (Expected: 5)
# Stage2: 289 Failed! Median: z (Expected: 7)
# Stage2: 290 Failed! Median: z (Expected: 5)
# Stage2: 291 Failed! Median: z (Expected: 3)
# Stage2: 292 Failed! Median: z (Expected: 12)
# Stage2: 293 Failed! Median: z (Expected: 10)
# Stage2: 294 Failed! Median: z (Expected: 9)
# Stage2: 295 Failed! Median: z (Expected: 5)
# Stage2: 296 Failed! Median: z (Expected: 11)
# Stage2: 297 Failed! Median: z (Expected: 7)
# Stage2: 298 Failed! Median: z (Expected: 9)
# Stage2: 299 Failed! Median: z (Expected: 8)
# Stage2: 300 Failed! Median: z (Expected: 4)
# Stage2: 301 Failed! Median: z (Expected: 6)
# Stage2: 302 Failed! Median: z (Expected: 10)
# Stage2: 303 Failed! Median: z (Expected: 8)
# Stage2: 304 Failed! Median: z (Expected: 10)
# Stage2: 305 Failed! Median: z (Expected: 5)
# Stage2: 306 Failed! Median: z (Expected: 5)
# Stage2: 307 Failed! Median: z (Expected: 5)
# Stage2: 308 Failed! Median: z (Expected: 3)
# Stage2: 309 Failed! Median: z (Expected: 11)
# Stage2: 310 Failed! Median: z (Expected: 10)
# Stage2: 311 Failed! Median: z (Expected: 6)
# Stage2: 312 Failed! Median: z (Expected: 9)
# Stage2: 313 Failed! Median: z (Expected: 7)
# Stage2: 314 Failed! Median: z (Expected: 4)
# Stage2: 315 Failed! Median: z (Expected: 9)
# Stage2: 316 Failed! Median: z (Expected: 7)
# Stage2: 317 Failed! Median: z (Expected: 7)
# Stage2: 318 Failed! Median: z (Expected: 8)
# Stage2: 319 Failed! Median: z (Expected: 10)
# Stage2: 320 Failed! Median: z (Expected: 10)
# Stage2: 321 Failed! Median: z (Expected: 9)
# Stage2: 322 Failed! Median: z (Expected: 6)
# Stage2: 323 Failed! Median: z (Expected: 8)
# Stage2: 324 Failed! Median: z (Expected: 11)
# Stage2: 325 Failed! Median: z (Expected: 8)
# Stage2: 326 Failed! Median: z (Expected: 6)
# Stage2: 327 Failed! Median: z (Expected: 7)
# Stage2: 328 Failed! Median: z (Expected: 1)
# Stage2: 329 Failed! Median: z (Expected: 5)
# Stage2: 330 Failed! Median: z (Expected: 5)
# Stage2: 331 Failed! Median: z (Expected: 4)
# Stage2: 332 Failed! Median: z (Expected: 2)
# Stage2: 333 Failed! Median: z (Expected: 8)
# Stage2: 334 Failed! Median: z (Expected: 7)
# Stage2: 335 Failed! Median: z (Expected: 6)
# Stage2: 336 Failed! Median: z (Expected: 9)
# Stage2: 337 Failed! Median: z (Expected: 2)
# Stage2: 338 Failed! Median: z (Expected: 9)
# Stage2: 339 Failed! Median: z (Expected: 4)
# Stage2: 340 Failed! Median: z (Expected: 4)
# Stage2: 341 Failed! Median: z (Expected: 6)
# Stage2: 342 Failed! Median: z (Expected: 12)
# Stage2: 343 Failed! Median: z (Expected: 5)
# Stage2: 344 Failed! Median: z (Expected: 11)
# Stage2: 345 Failed! Median: z (Expected: 8)
# Stage2: 346 Failed! Median: z (Expected: 12)
# Stage2: 347 Failed! Median: z (Expected: 10)
# Stage2: 348 Failed! Median: z (Expected: 6)
# Stage2: 349 Failed! Median: z (Expected: 7)
# Stage2: 350 Failed! Median: z (Expected: 9)
# Stage2: 351 Failed! Median: z (Expected: 5)
# Stage2: 352 Failed! Median: z (Expected: 5)
# Stage2: 353 Failed! Median: z (Expected: 11)
# Stage2: 354 Failed! Median: z (Expected: 6)
# Stage2: 355 Failed! Median: z (Expected: 8)
# Stage2: 356 Failed! Median: z (Expected: 6)
# Stage2: 357 Failed! Median: z (Expected: 5)
# Stage2: 358 Failed! Median: z (Expected: 6)
# Stage2: 359 Failed! Median: z (Expected: 8)
# Stage2: 360 Failed! Median: z (Expected: 8)
# Stage2: 361 Failed! Median: z (Expected: 11)
# Stage2: 362 Failed! Median: z (Expected: 8)
# Stage2: 363 Failed! Median: z (Expected: 6)
# Stage2: 364 Failed! Median: z (Expected: 9)
# Stage2: 365 Failed! Median: z (Expected: 5)
# Stage2: 366 Failed! Median: z (Expected: 8)
# Stage2: 367 Failed! Median: z (Expected: 8)
# Stage2: 368 Failed! Median: z (Expected: 8)
# Stage2: 369 Failed! Median: z (Expected: 7)
# Stage2: 370 Failed! Median: z (Expected: 8)
# Stage2: 371 Failed! Median: z (Expected: 7)
# Stage2: 372 Failed! Median: z (Expected: 9)
# Stage2: 373 Failed! Median: z (Expected: 9)
# Stage2: 374 Failed! Median: z (Expected: 7)
# Stage2: 375 Failed! Median: z (Expected: 7)
# Stage2: 376 Failed! Median: z (Expected: 9)
# Stage2: 377 Failed! Median: z (Expected: 5)
# Stage2: 378 Failed! Median: z (Expected: 13)
# Stage2: 379 Failed! Median: z (Expected: 8)
# Stage2: 380 Failed! Median: z (Expected: 8)
# Stage2: 381 Failed! Median: z (Expected: 9)
# Stage2: 382 Failed! Median: z (Expected: 8)
# Stage2: 383 Failed! Median: z (Expected: 6)
# Stage2: 384 Failed! Median: z (Expected: 9)
# Stage2: 385 Failed! Median: z (Expected: 11)
# Stage2: 386 Failed! Median: z (Expected: 10)
# Stage2: 387 Failed! Median: z (Expected: 4)
# Stage2: 388 Failed! Median: z (Expected: 7)
# Stage2: 389 Failed! Median: z (Expected: 9)
# Stage2: 390 Failed! Median: z (Expected: 8)
# Stage2: 391 Failed! Median: z (Expected: 5)
# Stage2: 392 Failed! Median: z (Expected: 6)
# Stage2: 393 Failed! Median: z (Expected: 7)
# Stage2: 394 Failed! Median: z (Expected: 7)
# Stage2: 395 Failed! Median: z (Expected: 2)
# Stage2: 396 Failed! Median: z (Expected: 8)
# Stage2: 397 Failed! Median: z (Expected: 7)
# Stage2: 398 Failed! Median: z (Expected: 7)
# Stage2: 399 Failed! Median: z (Expected: 12)
# Stage2: 400 Failed! Median: z (Expected: 7)
# Stage2: 401 Failed! Median: z (Expected: 5)
# Stage2: 402 Failed! Median: z (Expected: 6)
# Stage2: 403 Failed! Median: z (Expected: 7)
# Stage2: 404 Failed! Median: z (Expected: 5)
# Stage2: 405 Failed! Median: z (Expected: 9)
# Stage2: 406 Failed! Median: z (Expected: 7)
# Stage2: 407 Failed! Median: z (Expected: 7)
# Stage2: 408 Failed! Median: z (Expected: 5)
# Stage2: 409 Failed! Median: z (Expected: 8)
# Stage2: 410 Failed! Median: z (Expected: 3)
# Stage2: 411 Failed! Median: z (Expected: 7)
# Stage2: 412 Failed! Median: z (Expected: 10)
# Stage2: 413 Failed! Median: z (Expected: 9)
# Stage2: 414 Failed! Median: z (Expected: 9)
# Stage2: 415 Failed! Median: z (Expected: 11)
# Stage2: 416 Failed! Median: z (Expected: 7)
# Stage2: 417 Failed! Median: z (Expected: 8)
# Stage2: 418 Failed! Median: z (Expected: 8)
# Stage2: 419 Failed! Median: z (Expected: 7)
# Stage2: 420 Failed! Median: z (Expected: 12)
# Stage2: 421 Failed! Median: z (Expected: 7)
# Stage2: 422 Failed! Median: z (Expected: 12)
# Stage2: 423 Failed! Median: z (Expected: 6)
# Stage2: 424 Failed! Median: z (Expected: 6)
# Stage2: 425 Failed! Median: z (Expected: 5)
# Stage2: 426 Failed! Median: z (Expected: 9)
# Stage2: 427 Failed! Median: z (Expected: 5)
# Stage2: 428 Failed! Median: z (Expected: 9)
# Stage2: 429 Failed! Median: z (Expected: 3)
# Stage2: 430 Failed! Median: z (Expected: 7)
# Stage2: 431 Failed! Median: z (Expected: 9)
# Stage2: 432 Failed! Median: z (Expected: 6)
# Stage2: 433 Failed! Median: z (Expected: 10)
# Stage2: 434 Failed! Median: z (Expected: 4)
# Stage2: 435 Failed! Median: z (Expected: 5)
# Stage2: 436 Failed! Median: z (Expected: 3)
# Stage2: 437 Failed! Median: z (Expected: 10)
# Stage2: 438 Failed! Median: z (Expected: 6)
# Stage2: 439 Failed! Median: z (Expected: 7)
# Stage2: 440 Failed! Median: z (Expected: 9)
# Stage2: 441 Failed! Median: z (Expected: 7)
# Stage2: 442 Failed! Median: z (Expected: 10)
# Stage2: 443 Failed! Median: z (Expected: 8)
# Stage2: 444 Failed! Median: z (Expected: 5)
# Stage2: 445 Failed! Median: z (Expected: 2)
# Stage2: 446 Failed! Median: z (Expected: 11)
# Stage2: 447 Failed! Median: z (Expected: 12)
# Stage2: 448 Failed! Median: z (Expected: 8)
# Stage2: 449 Failed! Median: z (Expected: 7)
# Stage2: 450 Failed! Median: z (Expected: 9)
# Stage2: 451 Failed! Median: z (Expected: 7)
# Stage2: 452 Failed! Median: z (Expected: 9)
# Stage2: 453 Failed! Median: z (Expected: 13)
# Stage2: 454 Failed! Median: z (Expected: 5)
# Stage2: 455 Failed! Median: z (Expected: 2)
# Stage2: 456 Failed! Median: z (Expected: 3)
# Stage2: 457 Failed! Median: z (Expected: 9)
# Stage2: 458 Failed! Median: z (Expected: 4)
# Stage2: 459 Failed! Median: z (Expected: 10)
# Stage2: 460 Failed! Median: z (Expected: 8)
# Stage2: 461 Failed! Median: z (Expected: 5)
# Stage2: 462 Failed! Median: z (Expected: 5)
# Stage2: 463 Failed! Median: z (Expected: 5)
# Stage2: 464 Failed! Median: z (Expected: 6)
# Stage2: 465 Failed! Median: z (Expected: 8)
# Stage2: 466 Failed! Median: z (Expected: 12)
# Stage2: 467 Failed! Median: z (Expected: 11)
# Stage2: 468 Failed! Median: z (Expected: 9)
# Stage2: 469 Failed! Median: z (Expected: 6)
# Stage2: 470 Failed! Median: z (Expected: 10)
# Stage2: 471 Failed! Median: z (Expected: 3)
# Stage2: 472 Failed! Median: z (Expected: 4)
# Stage2: 473 Failed! Median: z (Expected: 12)
# Stage2: 474 Failed! Median: z (Expected: 3)
# Stage2: 475 Failed! Median: z (Expected: 4)
# Stage2: 476 Failed! Median: z (Expected: 6)
# Stage2: 477 Failed! Median: z (Expected: 9)
# Stage2: 478 Failed! Median: z (Expected: 8)
# Stage2: 479 Failed! Median: z (Expected: 9)
# Stage2: 480 Failed! Median: z (Expected: 11)
# Stage2: 481 Failed! Median: z (Expected: 9)
# Stage2: 482 Failed! Median: z (Expected: 4)
# Stage2: 483 Failed! Median: z (Expected: 10)
# Stage2: 484 Failed! Median: z (Expected: 11)
# Stage2: 485 Failed! Median: z (Expected: 6)
# Stage2: 486 Failed! Median: z (Expected: 4)
# Stage2: 487 Failed! Median: z (Expected: 6)
# Stage2: 488 Failed! Median: z (Expected: 7)
# Stage2: 489 Failed! Median: z (Expected: 6)
# Stage2: 490 Failed! Median: z (Expected: 7)
# Stage2: 491 Failed! Median: z (Expected: 10)
# Stage2: 492 Failed! Median: z (Expected: 10)
# Stage2: 493 Failed! Median: z (Expected: 4)
# Stage2: 494 Failed! Median: z (Expected: 9)
# Stage2: 495 Failed! Median: z (Expected: 7)
# Stage2: 496 Failed! Median: z (Expected: 4)
# Stage2: 497 Failed! Median: z (Expected: 11)
# Stage2: 498 Failed! Median: z (Expected: 8)
# Stage2: 499 Failed! Median: z (Expected: 11)
# Stage2: 500 Failed! Median: z (Expected: 8)
# Stage2: 501 Failed! Median: z (Expected: 10)
# Stage2: 502 Failed! Median: z (Expected: 3)
# Stage2: 503 Failed! Median: z (Expected: 3)
# Stage2: 504 Failed! Median: z (Expected: 3)
# Stage2: 505 Failed! Median: z (Expected: 9)
# Stage2: 506 Failed! Median: z (Expected: 6)
# Stage2: 507 Failed! Median: z (Expected: 6)
# Stage2: 508 Failed! Median: z (Expected: 11)
# Stage2: 509 Failed! Median: z (Expected: 10)
# Stage2: 510 Failed! Median: z (Expected: 4)
# Stage2: 511 Failed! Median: z (Expected: 5)
# Stage2: 512 Failed! Median: z (Expected: 6)
# Stage2: 513 Failed! Median: z (Expected: 8)
# Stage2: 514 Failed! Median: z (Expected: 6)
# Stage2: 515 Failed! Median: z (Expected: 11)
# Stage2: 516 Failed! Median: z (Expected: 6)
# Stage2: 517 Failed! Median: z (Expected: 5)
# Stage2: 518 Failed! Median: z (Expected: 12)
# Stage2: 519 Failed! Median: z (Expected: 3)
# Stage2: 520 Failed! Median: z (Expected: 7)
# Stage2: 521 Failed! Median: z (Expected: 6)
# Stage2: 522 Failed! Median: z (Expected: 7)
# Stage2: 523 Failed! Median: z (Expected: 7)
# Stage2: 524 Failed! Median: z (Expected: 10)
# Stage2: 525 Failed! Median: z (Expected: 7)
# Stage2: 526 Failed! Median: z (Expected: 9)
# Stage2: 527 Failed! Median: z (Expected: 5)
# Stage2: 528 Failed! Median: z (Expected: 11)
# Stage2: 529 Failed! Median: z (Expected: 10)
# Stage2: 530 Failed! Median: z (Expected: 11)
# Stage2: 531 Failed! Median: z (Expected: 9)
# Stage2: 532 Failed! Median: z (Expected: 11)
# Stage2: 533 Failed! Median: z (Expected: 3)
# Stage2: 534 Failed! Median: z (Expected: 8)
# Stage2: 535 Failed! Median: z (Expected: 6)
# Stage2: 536 Failed! Median: z (Expected: 10)
# Stage2: 537 Failed! Median: z (Expected: 8)
# Stage2: 538 Failed! Median: z (Expected: 6)
# Stage2: 539 Failed! Median: z (Expected: 11)
# Stage2: 540 Failed! Median: z (Expected: 9)
# Stage2: 541 Failed! Median: z (Expected: 10)
# Stage2: 542 Failed! Median: z (Expected: 5)
# Stage2: 543 Failed! Median: z (Expected: 12)
# Stage2: 544 Failed! Median: z (Expected: 8)
# Stage2: 545 Failed! Median: z (Expected: 5)
# Stage2: 546 Failed! Median: z (Expected: 6)
# Stage2: 547 Failed! Median: z (Expected: 7)
# Stage2: 548 Failed! Median: z (Expected: 12)
# Stage2: 549 Failed! Median: z (Expected: 12)
# Stage2: 550 Failed! Median: z (Expected: 6)
# Stage2: 551 Failed! Median: z (Expected: 8)
# Stage2: 552 Failed! Median: z (Expected: 12)
